CPU_tb2.vcd
$date
	Sat Sep 14 23:51:29 2024
$end
$version
	Icarus Verilog
$end
$timescale
	1ps
$end
$scope module CPU_tb $end
$var wire 32 ! memWriteData [31:0] $end
$var wire 1 " memWrite $end
$var wire 32 # memAddress [31:0] $end
$var reg 1 $ clk $end
$var reg 32 % memReadData [31:0] $end
$var reg 1 & reset $end
$scope module uut $end
$var wire 32 ' MemoryDataRegister [31:0] $end
$var wire 32 ( RegFileDataA [31:0] $end
$var wire 32 ) RegFileDataB [31:0] $end
$var wire 1 $ clk $end
$var wire 32 * memReadData [31:0] $end
$var wire 1 " memWrite $end
$var wire 32 + memWriteData [31:0] $end
$var wire 1 & reset $end
$var wire 5 , rs2 [4:0] $end
$var wire 5 - rs1 [4:0] $end
$var wire 5 . rd [4:0] $end
$var wire 7 / opcode [6:0] $end
$var wire 32 0 memAddress [31:0] $end
$var wire 32 1 immUType [31:0] $end
$var wire 32 2 immSType [31:0] $end
$var wire 32 3 immJType [31:0] $end
$var wire 32 4 immIType [31:0] $end
$var wire 32 5 immBType [31:0] $end
$var wire 7 6 funct7 [6:0] $end
$var wire 3 7 funct3 [2:0] $end
$var wire 1 8 Zero $end
$var wire 2 9 ResultSrc [1:0] $end
$var wire 1 : RegWrite $end
$var wire 1 ; REGBEnable $end
$var wire 1 < REGAEnable $end
$var wire 1 = PCEnable $end
$var wire 1 > MemWrite $end
$var wire 1 ? InstructionRegisterEnable $end
$var wire 1 @ InstructionOrData $end
$var wire 3 A ImmediateSrc [2:0] $end
$var wire 2 B ALUSrcB [1:0] $end
$var wire 2 C ALUSrcA [1:0] $end
$var wire 32 D ALUResult [31:0] $end
$var wire 4 E ALUControlSignal [3:0] $end
$var reg 32 F ALUA [31:0] $end
$var reg 32 G ALUB [31:0] $end
$var reg 32 H ALUOUT [31:0] $end
$var reg 32 I Immediate [31:0] $end
$var reg 32 J InstructionRegister [31:0] $end
$var reg 32 K OLDPC [31:0] $end
$var reg 32 L PC [31:0] $end
$var reg 32 M REGA [31:0] $end
$var reg 32 N REGB [31:0] $end
$var reg 32 O Result [31:0] $end
$var reg 4 P byteMask [3:0] $end
$scope module alu $end
$var wire 32 Q ALUA [31:0] $end
$var wire 32 R ALUB [31:0] $end
$var wire 5 S fiveBitImmediate [4:0] $end
$var wire 4 T ALUControlSignal [3:0] $end
$var reg 32 U ALUResult [31:0] $end
$var reg 1 8 Zero $end
$upscope $end
$scope module controlUnit $end
$var wire 1 8 Zero $end
$var wire 1 $ clk $end
$var wire 3 V funct3 [2:0] $end
$var wire 7 W funct7 [6:0] $end
$var wire 7 X opcode [6:0] $end
$var wire 1 & reset $end
$var wire 4 Y ALUControlSignal [3:0] $end
$var reg 2 Z ALUOp [1:0] $end
$var reg 2 [ ALUSrcA [1:0] $end
$var reg 2 \ ALUSrcB [1:0] $end
$var reg 3 ] ImmediateSrc [2:0] $end
$var reg 1 @ InstructionOrData $end
$var reg 1 ? InstructionRegisterEnable $end
$var reg 1 > MemWrite $end
$var reg 1 = PCEnable $end
$var reg 1 < REGAEnable $end
$var reg 1 ; REGBEnable $end
$var reg 1 : RegWrite $end
$var reg 2 ^ ResultSrc [1:0] $end
$var reg 4 _ current_state [3:0] $end
$var reg 4 ` next_state [3:0] $end
$scope module ALUControlUnit $end
$var wire 2 a ALUOp [1:0] $end
$var wire 3 b funct3 [2:0] $end
$var wire 7 c funct7 [6:0] $end
$var wire 1 d funct7_5 $end
$var reg 4 e ALUControlSignal [3:0] $end
$upscope $end
$upscope $end
$scope begin $ivl_for_loop0 $end
$var integer 32 f i [31:0] $end
$upscope $end
$upscope $end
$upscope $end
$scope module CPU_tb $end
$scope module uut $end
$var reg 32 g \RegFile[0] [31:0] $end
$upscope $end
$upscope $end
$scope module CPU_tb $end
$scope module uut $end
$var reg 32 h \RegFile[1] [31:0] $end
$upscope $end
$upscope $end
$scope module CPU_tb $end
$scope module uut $end
$var reg 32 i \RegFile[2] [31:0] $end
$upscope $end
$upscope $end
$scope module CPU_tb $end
$scope module uut $end
$var reg 32 j \RegFile[3] [31:0] $end
$upscope $end
$upscope $end
$scope module CPU_tb $end
$scope module uut $end
$var reg 32 k \RegFile[4] [31:0] $end
$upscope $end
$upscope $end
$scope module CPU_tb $end
$scope module uut $end
$var reg 32 l \RegFile[5] [31:0] $end
$upscope $end
$upscope $end
$scope module CPU_tb $end
$scope module uut $end
$var reg 32 m \RegFile[6] [31:0] $end
$upscope $end
$upscope $end
$scope module CPU_tb $end
$scope module uut $end
$var reg 32 n \RegFile[7] [31:0] $end
$upscope $end
$upscope $end
$scope module CPU_tb $end
$scope module uut $end
$var reg 32 o \RegFile[8] [31:0] $end
$upscope $end
$upscope $end
$scope module CPU_tb $end
$scope module uut $end
$var reg 32 p \RegFile[9] [31:0] $end
$upscope $end
$upscope $end
$scope module CPU_tb $end
$scope module uut $end
$var reg 32 q \RegFile[10] [31:0] $end
$upscope $end
$upscope $end
$scope module CPU_tb $end
$scope module uut $end
$var reg 32 r \RegFile[11] [31:0] $end
$upscope $end
$upscope $end
$scope module CPU_tb $end
$scope module uut $end
$var reg 32 s \RegFile[12] [31:0] $end
$upscope $end
$upscope $end
$scope module CPU_tb $end
$scope module uut $end
$var reg 32 t \RegFile[13] [31:0] $end
$upscope $end
$upscope $end
$scope module CPU_tb $end
$scope module uut $end
$var reg 32 u \RegFile[14] [31:0] $end
$upscope $end
$upscope $end
$scope module CPU_tb $end
$scope module uut $end
$var reg 32 v \RegFile[15] [31:0] $end
$upscope $end
$upscope $end
$scope module CPU_tb $end
$scope module uut $end
$var reg 32 w \RegFile[16] [31:0] $end
$upscope $end
$upscope $end
$scope module CPU_tb $end
$scope module uut $end
$var reg 32 x \RegFile[17] [31:0] $end
$upscope $end
$upscope $end
$scope module CPU_tb $end
$scope module uut $end
$var reg 32 y \RegFile[18] [31:0] $end
$upscope $end
$upscope $end
$scope module CPU_tb $end
$scope module uut $end
$var reg 32 z \RegFile[19] [31:0] $end
$upscope $end
$upscope $end
$scope module CPU_tb $end
$scope module uut $end
$var reg 32 { \RegFile[20] [31:0] $end
$upscope $end
$upscope $end
$scope module CPU_tb $end
$scope module uut $end
$var reg 32 | \RegFile[21] [31:0] $end
$upscope $end
$upscope $end
$scope module CPU_tb $end
$scope module uut $end
$var reg 32 } \RegFile[22] [31:0] $end
$upscope $end
$upscope $end
$scope module CPU_tb $end
$scope module uut $end
$var reg 32 ~ \RegFile[23] [31:0] $end
$upscope $end
$upscope $end
$scope module CPU_tb $end
$scope module uut $end
$var reg 32 !" \RegFile[24] [31:0] $end
$upscope $end
$upscope $end
$scope module CPU_tb $end
$scope module uut $end
$var reg 32 "" \RegFile[25] [31:0] $end
$upscope $end
$upscope $end
$scope module CPU_tb $end
$scope module uut $end
$var reg 32 #" \RegFile[26] [31:0] $end
$upscope $end
$upscope $end
$scope module CPU_tb $end
$scope module uut $end
$var reg 32 $" \RegFile[27] [31:0] $end
$upscope $end
$upscope $end
$scope module CPU_tb $end
$scope module uut $end
$var reg 32 %" \RegFile[28] [31:0] $end
$upscope $end
$upscope $end
$scope module CPU_tb $end
$scope module uut $end
$var reg 32 &" \RegFile[29] [31:0] $end
$upscope $end
$upscope $end
$scope module CPU_tb $end
$scope module uut $end
$var reg 32 '" \RegFile[30] [31:0] $end
$upscope $end
$upscope $end
$scope module CPU_tb $end
$scope module uut $end
$var reg 32 (" \RegFile[31] [31:0] $end
$upscope $end
$upscope $end
$enddefinitions $end
$comment Show the parameter values. $end
$dumpall
$end
#0
$dumpvars
b0 ("
b0 '"
b0 &"
b0 %"
b0 $"
b0 #"
b0 ""
b0 !"
b0 ~
b0 }
b0 |
b0 {
b0 z
b0 y
b0 x
b0 w
b0 v
b0 u
b0 t
b0 s
b0 r
b0 q
b0 p
b0 o
b0 n
b0 m
b0 l
b0 k
b0 j
b0 i
b0 h
b0 g
b100000 f
b0 e
0d
b0 c
b0 b
b0 a
b1 `
b0 _
b10 ^
b0 ]
b10 \
b0 [
b0 Z
b0 Y
b0 X
b0 W
b0 V
b100 U
b0 T
b100 S
b100 R
b0 Q
b1 P
b100 O
b0 N
b0 M
b0 L
bx K
b0 J
b0 I
b0 H
b100 G
b0 F
b0 E
b100 D
b0 C
b10 B
b0 A
0@
1?
0>
1=
0<
0;
0:
b10 9
08
b0 7
b0 6
b0 5
b0 4
b0 3
b0 2
b0 1
b0 0
b0 /
b0 .
b0 -
b0 ,
b0 +
b101001011000010100010011 *
b0 )
b0 (
b101001011000010100010011 '
1&
b101001011000010100010011 %
0$
b0 #
0"
b0 !
$end
#5000000000000
1$
#10000000000000
0$
#15000000000000
b1010 S
b1011000000000001010 G
b1011000000000001010 R
b1011000000000001010 I
b1011000000000001010 D
b1011000000000001010 U
b101001011000010110010011 '
b101001011000010110010011 %
b101001011000010110010011 *
b100 A
b100 ]
b1 C
b1 [
b0 9
b0 ^
b1 B
b1 \
0?
0=
b1010 `
b10011 /
b10011 X
b1011 -
b1010 ,
b1010 .
b1010 4
b1010 2
b1010 5
b101001011000000000000000 1
b1011000000000001010 3
b0 F
b0 Q
b100 #
b100 0
b1 _
b0 K
b101001011000010100010011 J
b100 L
b100 H
1$
0&
#20000000000000
0$
#25000000000000
b1010 D
b1010 U
b1010 G
b1010 R
b1010 I
b1011000000000001010 O
b11 Z
b11 a
b1 B
b1 \
b10 C
b10 [
b0 A
b0 ]
b11 `
b1011000000000001010 H
b1010 _
1$
#30000000000000
0$
#35000000000000
b0 S
b100 D
b100 U
b0 G
b0 R
b100 F
b100 Q
1:
b0 Z
b0 a
b0 B
b0 \
b0 C
b0 [
b0 `
b1010 O
b11 _
b1010 H
1$
#40000000000000
0$
#45000000000000
b1000 D
b1000 U
b100 S
b100 G
b100 R
b1000 O
b10 B
b10 \
1?
b10 9
b10 ^
1=
0:
b1 `
b1010 q
b1010 )
b100 H
b0 _
1$
#50000000000000
0$
#55000000000000
b1010 S
b1011000000000001010 G
b1011000000000001010 R
b1011000000000001010 I
b101001011000011000110011 '
b101001011000011000110011 %
b101001011000011000110011 *
b1011000000000001110 D
b1011000000000001110 U
b100 A
b100 ]
b1 C
b1 [
b0 9
b0 ^
b1 B
b1 \
0?
0=
b1010 `
b1011 .
b1011 2
b100000001010 5
b1000 #
b1000 0
b100 F
b100 Q
b1 _
b100 K
b101001011000010110010011 J
b1000 L
b1010 !
b1010 +
b1010 N
b1000 H
1$
#60000000000000
0$
#65000000000000
b1010 D
b1010 U
b1010 G
b1010 R
b0 F
b0 Q
b1010 I
b1011000000000001110 O
b11 Z
b11 a
b1 B
b1 \
b10 C
b10 [
b0 A
b0 ]
b11 `
b1011000000000001110 H
b1010 _
1$
#70000000000000
0$
#75000000000000
b10010 D
b10010 U
b1000 F
b1000 Q
1:
b0 Z
b0 a
b0 B
b0 \
b0 C
b0 [
b0 `
b1010 O
b11 _
b1010 H
1$
#80000000000000
0$
#85000000000000
b1100 D
b1100 U
b100 S
b100 G
b100 R
b1100 O
b10 B
b10 \
1?
b10 9
b10 ^
1=
0:
b1 `
b1010 r
b1010 (
b10010 H
b0 _
1$
#90000000000000
0$
#95000000000000
b1010 S
b1011000000000001010 G
b1011000000000001010 R
b1011000000000001010 I
b111100000000010011010000011 '
b111100000000010011010000011 %
b111100000000010011010000011 *
b1011000000000010010 D
b1011000000000010010 U
b100 A
b100 ]
b1 C
b1 [
b0 9
b0 ^
b1 B
b1 \
0?
0=
b10 `
b110011 /
b110011 X
b1100 .
b1100 2
b1100 5
b1100 #
b1100 0
b1000 F
b1000 Q
b1 _
b1000 K
b101001011000011000110011 J
b1100 L
b1010 M
b1100 H
1$
#100000000000000
0$
#105000000000000
b10100 D
b10100 U
b1010 G
b1010 R
b1010 F
b1010 Q
b1010 I
b1011000000000010010 O
b10 Z
b10 a
b0 B
b0 \
b10 C
b10 [
b0 A
b0 ]
b11 `
b1011000000000010010 H
b10 _
1$
#110000000000000
0$
#115000000000000
b10110 D
b10110 U
b1100 F
b1100 Q
1:
b0 Z
b0 a
b0 C
b0 [
b0 `
b10100 O
b11 _
b10100 H
1$
#120000000000000
0$
#125000000000000
b10000 D
b10000 U
b100 S
b100 G
b100 R
b10000 O
b10 B
b10 \
1?
b10 9
b10 ^
1=
0:
b1 `
b10100 s
b10110 H
b0 _
1$
#130000000000000
0$
#135000000000000
b11000 S
b10000001111000 G
b10000001111000 R
b1111 P
b10000001111000 I
b10000010000100 D
b10000010000100 U
b110110100000010110000100011 '
b110110100000010110000100011 %
b110110100000010110000100011 *
b100 A
b100 ]
b1 C
b1 [
b0 9
b0 ^
b1 B
b1 \
0?
0=
b110 `
b11 /
b11 X
b0 (
b0 -
b0 )
b11000 ,
b1101 .
b10 7
b10 V
b10 b
b11 6
b11 W
b11 c
b1111000 4
b1101101 2
b100001101100 5
b111100000000010000000000000 1
b10000001111000 3
b1100 F
b1100 Q
b10000 #
b10000 0
b1 _
b1100 K
b111100000000010011010000011 J
b10000 L
b10000 H
1$
#140000000000000
0$
#145000000000000
b1111000 G
b1111000 R
b1111000 D
b1111000 U
b1111000 I
b10000010000100 O
b0 F
b0 Q
b1 B
b1 \
b10 C
b10 [
b0 A
b0 ]
b111 `
b10000010000100 H
b0 !
b0 +
b0 N
b0 M
b110 _
1$
#150000000000000
0$
#155000000000000
b11111111111111111111111111111111 '
b11111111111111111111111111111111 %
b11111111111111111111111111111111 *
b0 S
b10000 D
b10000 U
b1111000 #
b1111000 0
b0 G
b0 R
b10000 F
b10000 Q
1@
b0 B
b0 \
b0 C
b0 [
b1000 `
b1111000 O
b111 _
b1111000 H
1$
#160000000000000
0$
#165000000000000
b110110100000010110000100011 '
b110110100000010110000100011 %
b110110100000010110000100011 *
b10000 #
b10000 0
b110110100000010110000100011 O
1:
b1 9
b1 ^
0@
b0 `
b10000 H
b1000 _
1$
#170000000000000
0$
#175000000000000
b10100 D
b10100 U
b100 S
b100 G
b100 R
b10100 O
b10 B
b10 \
1?
1=
0:
b10 9
b10 ^
b1 `
b0 _
b110110100000010110000100011 t
1$
#180000000000000
0$
#185000000000000
b10100001111100 D
b10100001111100 U
b1100 S
b11111110110001011100100011100011 '
b11111110110001011100100011100011 %
b11111110110001011100100011100011 *
b10100001101100 I
b100011 /
b100011 X
b110110100000010110000100011 )
b1101 ,
b11000 .
b1101101 4
b1111000 2
b1111000 5
b110110100000010000000000000 1
b10100001101100 3
b10100001101100 G
b10100001101100 R
b10100 #
b10100 0
b100 A
b100 ]
b1 C
b1 [
b0 9
b0 ^
b1 B
b1 \
0?
0=
b110 `
b10100 H
b10000 K
b110110100000010110000100011 J
b10100 L
b1 _
1$
#190000000000000
0$
#195000000000000
b11000 S
b1111000 D
b1111000 U
b1111000 G
b1111000 R
b0 F
b0 Q
b1111000 I
b1 B
b1 \
b10 C
b10 [
b1 A
b1 ]
b1001 `
b10100001111100 O
b110 _
b110110100000010110000100011 !
b110110100000010110000100011 +
b110110100000010110000100011 N
b10100001111100 H
1$
#200000000000000
0$
#205000000000000
b11111111111111111111111111111111 '
b11111111111111111111111111111111 %
b11111111111111111111111111111111 *
b11 S
b110110100000010110000110111 D
b110110100000010110000110111 U
b1111000 #
b1111000 0
b110110100000010110000100011 G
b110110100000010110000100011 R
b10100 F
b10100 Q
b1101101 I
b1111000 O
1"
1>
1@
b0 B
b0 \
b0 C
b0 [
b0 A
b0 ]
b0 `
b1111000 H
b1001 _
1$
#210000000000000
0$
#215000000000000
b11000 D
b11000 U
b100 S
b11111110110001011100100011100011 '
b11111110110001011100100011100011 %
b11111110110001011100100011100011 *
b100 G
b100 R
b10100 #
b10100 0
b10 B
b10 \
1?
b10 9
b10 ^
1=
0"
0>
0@
b1 `
b11000 O
b0 _
b110110100000010110000110111 H
1$
#220000000000000
0$
#225000000000000
b1 P
1d
b100 D
b100 U
b10000 S
bx '
bx %
bx *
b11111111111111111111111111110000 I
b1100011 /
b1100011 X
b1010 (
b1011 -
b10100 )
b1100 ,
b10001 .
b100 7
b100 V
b100 b
b1111111 6
b1111111 W
b1111111 c
b11111111111111111111111111101100 4
b11111111111111111111111111110001 2
b11111111111111111111111111110000 5
b11111110110001011100000000000000 1
b11111111111101011100011111101100 3
b11111111111111111111111111110000 G
b11111111111111111111111111110000 R
b11000 #
b11000 0
b10 A
b10 ]
b1 C
b1 [
b0 9
b0 ^
b1 B
b1 \
0?
0=
b101 `
b11000 H
b10100 K
b11111110110001011100100011100011 J
b11000 L
b1 _
1$
#230000000000000
0$
#235000000000000
b10100 S
b1 D
b1 U
b1101 E
b1101 T
b1101 Y
b1101 e
b10100 G
b10100 R
b1010 F
b1010 Q
b11111111111111111111111111101100 I
1=
b1 Z
b1 a
b0 B
b0 \
b10 C
b10 [
b0 A
b0 ]
b0 `
b100 O
b101 _
b10100 !
b10100 +
b10100 N
b1010 M
b100 H
1$
#240000000000000
0$
#245000000000000
b100 S
b1000 D
b1000 U
b101001011000010110010011 '
b101001011000010110010011 %
b101001011000010110010011 *
b0 E
b0 T
b0 Y
b0 e
b1000 O
b100 G
b100 R
b100 F
b100 Q
b100 #
b100 0
b10 B
b10 \
1?
b10 9
b10 ^
b0 Z
b0 a
b0 C
b0 [
1=
b1 `
b1 H
b100 L
b0 _
1$
#250000000000000
0$
#255000000000000
b1010 S
b1011000000000001010 G
b1011000000000001010 R
0d
b1011000000000001010 I
b1011000000000001110 D
b1011000000000001110 U
b101001011000011000110011 '
b101001011000011000110011 %
b101001011000011000110011 *
b100 A
b100 ]
b1 C
b1 [
b0 9
b0 ^
b1 B
b1 \
0?
0=
b1010 `
b10011 /
b10011 X
b1010 )
b1010 ,
b1011 .
b0 7
b0 V
b0 b
b0 6
b0 W
b0 c
b1010 4
b1011 2
b100000001010 5
b101001011000000000000000 1
b1011000000000001010 3
b100 F
b100 Q
b1000 #
b1000 0
b1 _
b100 K
b101001011000010110010011 J
b1000 L
b1000 H
1$
#260000000000000
0$
#265000000000000
b1010 G
b1010 R
b10100 D
b10100 U
b1010 I
b1011000000000001110 O
b1010 F
b1010 Q
b11 Z
b11 a
b1 B
b1 \
b10 C
b10 [
b0 A
b0 ]
b11 `
b1011000000000001110 H
b1010 !
b1010 +
b1010 N
b1010 _
1$
#270000000000000
0$
#275000000000000
b10010 D
b10010 U
b1000 F
b1000 Q
1:
b0 Z
b0 a
b0 B
b0 \
b0 C
b0 [
b0 `
b10100 O
b11 _
b10100 H
1$
#280000000000000
0$
#285000000000000
b1100 D
b1100 U
b100 S
b100 G
b100 R
b1100 O
b10 B
b10 \
1?
b10 9
b10 ^
1=
0:
b1 `
b10100 r
b10100 (
b10010 H
b0 _
1$
#290000000000000
0$
#295000000000000
b1010 S
b1011000000000001010 G
b1011000000000001010 R
b1011000000000001010 I
b111100000000010011010000011 '
b111100000000010011010000011 %
b111100000000010011010000011 *
b1011000000000010010 D
b1011000000000010010 U
b100 A
b100 ]
b1 C
b1 [
b0 9
b0 ^
b1 B
b1 \
0?
0=
b10 `
b110011 /
b110011 X
b1100 .
b1100 2
b1100 5
b1100 #
b1100 0
b1000 F
b1000 Q
b1 _
b1000 K
b101001011000011000110011 J
b1100 L
b10100 M
b1100 H
1$
#300000000000000
0$
#305000000000000
b11110 D
b11110 U
b1010 G
b1010 R
b10100 F
b10100 Q
b1010 I
b1011000000000010010 O
b10 Z
b10 a
b0 B
b0 \
b10 C
b10 [
b0 A
b0 ]
b11 `
b1011000000000010010 H
b10 _
1$
#310000000000000
0$
#315000000000000
b10110 D
b10110 U
b1100 F
b1100 Q
1:
b0 Z
b0 a
b0 C
b0 [
b0 `
b11110 O
b11 _
b11110 H
1$
#320000000000000
0$
#325000000000000
b10000 D
b10000 U
b100 S
b100 G
b100 R
b10000 O
b10 B
b10 \
1?
b10 9
b10 ^
1=
0:
b1 `
b11110 s
b10110 H
b0 _
1$
#330000000000000
0$
#335000000000000
b11000 S
b10000001111000 G
b10000001111000 R
b1111 P
b10000001111000 I
b10000010000100 D
b10000010000100 U
b110110100000010110000100011 '
b110110100000010110000100011 %
b110110100000010110000100011 *
b100 A
b100 ]
b1 C
b1 [
b0 9
b0 ^
b1 B
b1 \
0?
0=
b110 `
b11 /
b11 X
b0 (
b0 -
b0 )
b11000 ,
b1101 .
b10 7
b10 V
b10 b
b11 6
b11 W
b11 c
b1111000 4
b1101101 2
b100001101100 5
b111100000000010000000000000 1
b10000001111000 3
b1100 F
b1100 Q
b10000 #
b10000 0
b1 _
b1100 K
b111100000000010011010000011 J
b10000 L
b10000 H
1$
#340000000000000
0$
#345000000000000
b1111000 G
b1111000 R
b1111000 D
b1111000 U
b1111000 I
b10000010000100 O
b0 F
b0 Q
b1 B
b1 \
b10 C
b10 [
b0 A
b0 ]
b111 `
b10000010000100 H
b0 !
b0 +
b0 N
b0 M
b110 _
1$
#350000000000000
0$
#355000000000000
b11111111111111111111111111111111 '
b11111111111111111111111111111111 %
b11111111111111111111111111111111 *
b0 S
b10000 D
b10000 U
b1111000 #
b1111000 0
b0 G
b0 R
b10000 F
b10000 Q
1@
b0 B
b0 \
b0 C
b0 [
b1000 `
b1111000 O
b111 _
b1111000 H
1$
#360000000000000
0$
#365000000000000
b110110100000010110000100011 '
b110110100000010110000100011 %
b110110100000010110000100011 *
b10000 #
b10000 0
b110110100000010110000100011 O
1:
b1 9
b1 ^
0@
b0 `
b10000 H
b1000 _
1$
#370000000000000
0$
#375000000000000
b10100 D
b10100 U
b100 S
b100 G
b100 R
b10100 O
b10 B
b10 \
1?
1=
0:
b10 9
b10 ^
b1 `
b0 _
b110110100000010110000100011 t
1$
#380000000000000
0$
#385000000000000
b10100001111100 D
b10100001111100 U
b1100 S
b11111110110001011100100011100011 '
b11111110110001011100100011100011 %
b11111110110001011100100011100011 *
b10100001101100 I
b100011 /
b100011 X
b110110100000010110000100011 )
b1101 ,
b11000 .
b1101101 4
b1111000 2
b1111000 5
b110110100000010000000000000 1
b10100001101100 3
b10100001101100 G
b10100001101100 R
b10100 #
b10100 0
b100 A
b100 ]
b1 C
b1 [
b0 9
b0 ^
b1 B
b1 \
0?
0=
b110 `
b10100 H
b10000 K
b110110100000010110000100011 J
b10100 L
b1 _
1$
#390000000000000
0$
#395000000000000
b11000 S
b1111000 D
b1111000 U
b1111000 G
b1111000 R
b0 F
b0 Q
b1111000 I
b1 B
b1 \
b10 C
b10 [
b1 A
b1 ]
b1001 `
b10100001111100 O
b110 _
b110110100000010110000100011 !
b110110100000010110000100011 +
b110110100000010110000100011 N
b10100001111100 H
1$
#400000000000000
0$
#405000000000000
b11111111111111111111111111111111 '
b11111111111111111111111111111111 %
b11111111111111111111111111111111 *
b11 S
b110110100000010110000110111 D
b110110100000010110000110111 U
b1111000 #
b1111000 0
b110110100000010110000100011 G
b110110100000010110000100011 R
b10100 F
b10100 Q
b1101101 I
b1111000 O
1"
1>
1@
b0 B
b0 \
b0 C
b0 [
b0 A
b0 ]
b0 `
b1111000 H
b1001 _
1$
#410000000000000
0$
#415000000000000
b11000 D
b11000 U
b100 S
b11111110110001011100100011100011 '
b11111110110001011100100011100011 %
b11111110110001011100100011100011 *
b100 G
b100 R
b10100 #
b10100 0
b10 B
b10 \
1?
b10 9
b10 ^
1=
0"
0>
0@
b1 `
b11000 O
b0 _
b110110100000010110000110111 H
1$
#420000000000000
0$
#425000000000000
b1 P
1d
b100 D
b100 U
b10000 S
bx '
bx %
bx *
b11111111111111111111111111110000 I
b1100011 /
b1100011 X
b10100 (
b1011 -
b11110 )
b1100 ,
b10001 .
b100 7
b100 V
b100 b
b1111111 6
b1111111 W
b1111111 c
b11111111111111111111111111101100 4
b11111111111111111111111111110001 2
b11111111111111111111111111110000 5
b11111110110001011100000000000000 1
b11111111111101011100011111101100 3
b11111111111111111111111111110000 G
b11111111111111111111111111110000 R
b11000 #
b11000 0
b10 A
b10 ]
b1 C
b1 [
b0 9
b0 ^
b1 B
b1 \
0?
0=
b101 `
b11000 H
b10100 K
b11111110110001011100100011100011 J
b11000 L
b1 _
1$
#430000000000000
0$
#435000000000000
b1 D
b1 U
b11110 S
b1101 E
b1101 T
b1101 Y
b1101 e
b11110 G
b11110 R
b11111111111111111111111111101100 I
1=
b1 Z
b1 a
b0 B
b0 \
b10 C
b10 [
b0 A
b0 ]
b0 `
b100 O
b101 _
b11110 !
b11110 +
b11110 N
b10100 M
b100 H
1$
#440000000000000
0$
#445000000000000
b100 S
b1000 D
b1000 U
b101001011000010110010011 '
b101001011000010110010011 %
b101001011000010110010011 *
b0 E
b0 T
b0 Y
b0 e
b1000 O
b100 G
b100 R
b100 F
b100 Q
b100 #
b100 0
b10 B
b10 \
1?
b10 9
b10 ^
b0 Z
b0 a
b0 C
b0 [
1=
b1 `
b1 H
b100 L
b0 _
1$
#450000000000000
0$
#455000000000000
b1010 S
b1011000000000001010 G
b1011000000000001010 R
0d
b1011000000000001010 I
b1011000000000001110 D
b1011000000000001110 U
b101001011000011000110011 '
b101001011000011000110011 %
b101001011000011000110011 *
b100 A
b100 ]
b1 C
b1 [
b0 9
b0 ^
b1 B
b1 \
0?
0=
b1010 `
b10011 /
b10011 X
b1010 )
b1010 ,
b1011 .
b0 7
b0 V
b0 b
b0 6
b0 W
b0 c
b1010 4
b1011 2
b100000001010 5
b101001011000000000000000 1
b1011000000000001010 3
b100 F
b100 Q
b1000 #
b1000 0
b1 _
b100 K
b101001011000010110010011 J
b1000 L
b1000 H
1$
#460000000000000
0$
#465000000000000
b1010 G
b1010 R
b11110 D
b11110 U
b1010 I
b1011000000000001110 O
b10100 F
b10100 Q
b11 Z
b11 a
b1 B
b1 \
b10 C
b10 [
b0 A
b0 ]
b11 `
b1011000000000001110 H
b1010 !
b1010 +
b1010 N
b1010 _
1$
#470000000000000
0$
#475000000000000
b10010 D
b10010 U
b1000 F
b1000 Q
1:
b0 Z
b0 a
b0 B
b0 \
b0 C
b0 [
b0 `
b11110 O
b11 _
b11110 H
1$
#480000000000000
0$
#485000000000000
b1100 D
b1100 U
b100 S
b100 G
b100 R
b1100 O
b10 B
b10 \
1?
b10 9
b10 ^
1=
0:
b1 `
b11110 r
b11110 (
b10010 H
b0 _
1$
#490000000000000
0$
#495000000000000
b1010 S
b1011000000000001010 G
b1011000000000001010 R
b1011000000000001010 I
b111100000000010011010000011 '
b111100000000010011010000011 %
b111100000000010011010000011 *
b1011000000000010010 D
b1011000000000010010 U
b100 A
b100 ]
b1 C
b1 [
b0 9
b0 ^
b1 B
b1 \
0?
0=
b10 `
b110011 /
b110011 X
b1100 .
b1100 2
b1100 5
b1100 #
b1100 0
b1000 F
b1000 Q
b1 _
b1000 K
b101001011000011000110011 J
b1100 L
b11110 M
b1100 H
1$
#500000000000000
0$
#505000000000000
b101000 D
b101000 U
b1010 G
b1010 R
b11110 F
b11110 Q
b1010 I
b1011000000000010010 O
b10 Z
b10 a
b0 B
b0 \
b10 C
b10 [
b0 A
b0 ]
b11 `
b1011000000000010010 H
b10 _
1$
#510000000000000
0$
#515000000000000
b10110 D
b10110 U
b1100 F
b1100 Q
1:
b0 Z
b0 a
b0 C
b0 [
b0 `
b101000 O
b11 _
b101000 H
1$
#520000000000000
0$
#525000000000000
b10000 D
b10000 U
b100 S
b100 G
b100 R
b10000 O
b10 B
b10 \
1?
b10 9
b10 ^
1=
0:
b1 `
b101000 s
b10110 H
b0 _
1$
#530000000000000
0$
#535000000000000
b11000 S
b10000001111000 G
b10000001111000 R
b1111 P
b10000001111000 I
b10000010000100 D
b10000010000100 U
b110110100000010110000100011 '
b110110100000010110000100011 %
b110110100000010110000100011 *
b100 A
b100 ]
b1 C
b1 [
b0 9
b0 ^
b1 B
b1 \
0?
0=
b110 `
b11 /
b11 X
b0 (
b0 -
b0 )
b11000 ,
b1101 .
b10 7
b10 V
b10 b
b11 6
b11 W
b11 c
b1111000 4
b1101101 2
b100001101100 5
b111100000000010000000000000 1
b10000001111000 3
b1100 F
b1100 Q
b10000 #
b10000 0
b1 _
b1100 K
b111100000000010011010000011 J
b10000 L
b10000 H
1$
#540000000000000
0$
#545000000000000
b1111000 G
b1111000 R
b1111000 D
b1111000 U
b1111000 I
b10000010000100 O
b0 F
b0 Q
b1 B
b1 \
b10 C
b10 [
b0 A
b0 ]
b111 `
b10000010000100 H
b0 !
b0 +
b0 N
b0 M
b110 _
1$
#550000000000000
0$
#555000000000000
b11111111111111111111111111111111 '
b11111111111111111111111111111111 %
b11111111111111111111111111111111 *
b0 S
b10000 D
b10000 U
b1111000 #
b1111000 0
b0 G
b0 R
b10000 F
b10000 Q
1@
b0 B
b0 \
b0 C
b0 [
b1000 `
b1111000 O
b111 _
b1111000 H
1$
#560000000000000
0$
#565000000000000
b110110100000010110000100011 '
b110110100000010110000100011 %
b110110100000010110000100011 *
b10000 #
b10000 0
b110110100000010110000100011 O
1:
b1 9
b1 ^
0@
b0 `
b10000 H
b1000 _
1$
#570000000000000
0$
#575000000000000
b10100 D
b10100 U
b100 S
b100 G
b100 R
b10100 O
b10 B
b10 \
1?
1=
0:
b10 9
b10 ^
b1 `
b0 _
b110110100000010110000100011 t
1$
#580000000000000
0$
#585000000000000
b10100001111100 D
b10100001111100 U
b1100 S
b11111110110001011100100011100011 '
b11111110110001011100100011100011 %
b11111110110001011100100011100011 *
b10100001101100 I
b100011 /
b100011 X
b110110100000010110000100011 )
b1101 ,
b11000 .
b1101101 4
b1111000 2
b1111000 5
b110110100000010000000000000 1
b10100001101100 3
b10100001101100 G
b10100001101100 R
b10100 #
b10100 0
b100 A
b100 ]
b1 C
b1 [
b0 9
b0 ^
b1 B
b1 \
0?
0=
b110 `
b10100 H
b10000 K
b110110100000010110000100011 J
b10100 L
b1 _
1$
#590000000000000
0$
