CPU_tb.vcd
$date
	Sat Sep 14 07:50:16 2024
$end
$version
	Icarus Verilog
$end
$timescale
	1s
$end
$scope module CPU_tb $end
$var wire 32 ! memWriteData [31:0] $end
$var wire 1 " memWrite $end
$var wire 32 # memAddress [31:0] $end
$var reg 1 $ clk $end
$var reg 32 % memReadData [31:0] $end
$var reg 1 & reset $end
$scope module uut $end
$var wire 32 ' RegFileDataA [31:0] $end
$var wire 32 ( RegFileDataB [31:0] $end
$var wire 1 $ clk $end
$var wire 32 ) memReadData [31:0] $end
$var wire 1 " memWrite $end
$var wire 32 * memWriteData [31:0] $end
$var wire 1 & reset $end
$var wire 5 + rs2 [4:0] $end
$var wire 5 , rs1 [4:0] $end
$var wire 5 - rd [4:0] $end
$var wire 7 . opcode [6:0] $end
$var wire 32 / memAddress [31:0] $end
$var wire 32 0 immUType [31:0] $end
$var wire 32 1 immSType [31:0] $end
$var wire 32 2 immJType [31:0] $end
$var wire 32 3 immIType [31:0] $end
$var wire 32 4 immBType [31:0] $end
$var wire 7 5 funct7 [6:0] $end
$var wire 3 6 funct3 [2:0] $end
$var wire 1 7 Zero $end
$var wire 2 8 ResultSrc [1:0] $end
$var wire 1 9 RegWrite $end
$var wire 1 : REGBEnable $end
$var wire 1 ; REGAEnable $end
$var wire 1 < PCEnable $end
$var wire 1 = MemWrite $end
$var wire 1 > InstructionRegisterEnable $end
$var wire 1 ? InstructionOrData $end
$var wire 3 @ ImmediateSrc [2:0] $end
$var wire 2 A ALUSrcB [1:0] $end
$var wire 2 B ALUSrcA [1:0] $end
$var wire 32 C ALUResult [31:0] $end
$var wire 4 D ALUControlSignal [3:0] $end
$var reg 32 E ALUA [31:0] $end
$var reg 32 F ALUB [31:0] $end
$var reg 32 G ALUOUT [31:0] $end
$var reg 32 H Immediate [31:0] $end
$var reg 32 I InstructionRegister [31:0] $end
$var reg 32 J MemoryDataRegister [31:0] $end
$var reg 32 K OLDPC [31:0] $end
$var reg 32 L PC [31:0] $end
$var reg 32 M REGA [31:0] $end
$var reg 32 N REGB [31:0] $end
$var reg 32 O Result [31:0] $end
$scope module alu $end
$var wire 32 P ALUA [31:0] $end
$var wire 32 Q ALUB [31:0] $end
$var wire 5 R fiveBitImmediate [4:0] $end
$var wire 4 S ALUControlSignal [3:0] $end
$var reg 32 T ALUResult [31:0] $end
$var reg 1 7 Zero $end
$upscope $end
$scope module controlUnit $end
$var wire 1 7 Zero $end
$var wire 1 $ clk $end
$var wire 3 U funct3 [2:0] $end
$var wire 7 V funct7 [6:0] $end
$var wire 7 W opcode [6:0] $end
$var wire 1 & reset $end
$var wire 4 X ALUControlSignal [3:0] $end
$var reg 2 Y ALUOp [1:0] $end
$var reg 2 Z ALUSrcA [1:0] $end
$var reg 2 [ ALUSrcB [1:0] $end
$var reg 3 \ ImmediateSrc [2:0] $end
$var reg 1 ? InstructionOrData $end
$var reg 1 > InstructionRegisterEnable $end
$var reg 1 = MemWrite $end
$var reg 1 < PCEnable $end
$var reg 1 ; REGAEnable $end
$var reg 1 : REGBEnable $end
$var reg 1 9 RegWrite $end
$var reg 2 ] ResultSrc [1:0] $end
$var reg 4 ^ current_state [3:0] $end
$var reg 4 _ next_state [3:0] $end
$scope module ALUControlUnit $end
$var wire 2 ` ALUOp [1:0] $end
$var wire 3 a funct3 [2:0] $end
$var wire 7 b funct7 [6:0] $end
$var wire 1 c funct7_5 $end
$var reg 4 d ALUControlSignal [3:0] $end
$upscope $end
$upscope $end
$scope begin $ivl_for_loop0 $end
$var integer 32 e i [31:0] $end
$upscope $end
$upscope $end
$upscope $end
$scope module CPU_tb $end
$scope module uut $end
$var reg 32 f \RegFile[0] [31:0] $end
$upscope $end
$upscope $end
$scope module CPU_tb $end
$scope module uut $end
$var reg 32 g \RegFile[1] [31:0] $end
$upscope $end
$upscope $end
$scope module CPU_tb $end
$scope module uut $end
$var reg 32 h \RegFile[2] [31:0] $end
$upscope $end
$upscope $end
$scope module CPU_tb $end
$scope module uut $end
$var reg 32 i \RegFile[3] [31:0] $end
$upscope $end
$upscope $end
$scope module CPU_tb $end
$scope module uut $end
$var reg 32 j \RegFile[4] [31:0] $end
$upscope $end
$upscope $end
$scope module CPU_tb $end
$scope module uut $end
$var reg 32 k \RegFile[5] [31:0] $end
$upscope $end
$upscope $end
$scope module CPU_tb $end
$scope module uut $end
$var reg 32 l \RegFile[6] [31:0] $end
$upscope $end
$upscope $end
$scope module CPU_tb $end
$scope module uut $end
$var reg 32 m \RegFile[7] [31:0] $end
$upscope $end
$upscope $end
$scope module CPU_tb $end
$scope module uut $end
$var reg 32 n \RegFile[8] [31:0] $end
$upscope $end
$upscope $end
$scope module CPU_tb $end
$scope module uut $end
$var reg 32 o \RegFile[9] [31:0] $end
$upscope $end
$upscope $end
$scope module CPU_tb $end
$scope module uut $end
$var reg 32 p \RegFile[10] [31:0] $end
$upscope $end
$upscope $end
$scope module CPU_tb $end
$scope module uut $end
$var reg 32 q \RegFile[11] [31:0] $end
$upscope $end
$upscope $end
$scope module CPU_tb $end
$scope module uut $end
$var reg 32 r \RegFile[12] [31:0] $end
$upscope $end
$upscope $end
$scope module CPU_tb $end
$scope module uut $end
$var reg 32 s \RegFile[13] [31:0] $end
$upscope $end
$upscope $end
$scope module CPU_tb $end
$scope module uut $end
$var reg 32 t \RegFile[14] [31:0] $end
$upscope $end
$upscope $end
$scope module CPU_tb $end
$scope module uut $end
$var reg 32 u \RegFile[15] [31:0] $end
$upscope $end
$upscope $end
$scope module CPU_tb $end
$scope module uut $end
$var reg 32 v \RegFile[16] [31:0] $end
$upscope $end
$upscope $end
$scope module CPU_tb $end
$scope module uut $end
$var reg 32 w \RegFile[17] [31:0] $end
$upscope $end
$upscope $end
$scope module CPU_tb $end
$scope module uut $end
$var reg 32 x \RegFile[18] [31:0] $end
$upscope $end
$upscope $end
$scope module CPU_tb $end
$scope module uut $end
$var reg 32 y \RegFile[19] [31:0] $end
$upscope $end
$upscope $end
$scope module CPU_tb $end
$scope module uut $end
$var reg 32 z \RegFile[20] [31:0] $end
$upscope $end
$upscope $end
$scope module CPU_tb $end
$scope module uut $end
$var reg 32 { \RegFile[21] [31:0] $end
$upscope $end
$upscope $end
$scope module CPU_tb $end
$scope module uut $end
$var reg 32 | \RegFile[22] [31:0] $end
$upscope $end
$upscope $end
$scope module CPU_tb $end
$scope module uut $end
$var reg 32 } \RegFile[23] [31:0] $end
$upscope $end
$upscope $end
$scope module CPU_tb $end
$scope module uut $end
$var reg 32 ~ \RegFile[24] [31:0] $end
$upscope $end
$upscope $end
$scope module CPU_tb $end
$scope module uut $end
$var reg 32 !" \RegFile[25] [31:0] $end
$upscope $end
$upscope $end
$scope module CPU_tb $end
$scope module uut $end
$var reg 32 "" \RegFile[26] [31:0] $end
$upscope $end
$upscope $end
$scope module CPU_tb $end
$scope module uut $end
$var reg 32 #" \RegFile[27] [31:0] $end
$upscope $end
$upscope $end
$scope module CPU_tb $end
$scope module uut $end
$var reg 32 $" \RegFile[28] [31:0] $end
$upscope $end
$upscope $end
$scope module CPU_tb $end
$scope module uut $end
$var reg 32 %" \RegFile[29] [31:0] $end
$upscope $end
$upscope $end
$scope module CPU_tb $end
$scope module uut $end
$var reg 32 &" \RegFile[30] [31:0] $end
$upscope $end
$upscope $end
$scope module CPU_tb $end
$scope module uut $end
$var reg 32 '" \RegFile[31] [31:0] $end
$upscope $end
$upscope $end
$enddefinitions $end
$comment Show the parameter values. $end
$dumpall
$end
#0
$dumpvars
b0 '"
b0 &"
b0 %"
b0 $"
b0 #"
b0 ""
b0 !"
b0 ~
b0 }
b0 |
b0 {
b0 z
b0 y
b0 x
b0 w
b0 v
b0 u
b0 t
b0 s
b0 r
b0 q
b0 p
b0 o
b0 n
b0 m
b0 l
b0 k
b0 j
b0 i
b0 h
b0 g
b0 f
b100000 e
b0 d
0c
b0 b
b0 a
b0 `
b1 _
b0 ^
b10 ]
b0 \
b10 [
b0 Z
b0 Y
b0 X
b0 W
b0 V
b0 U
b100 T
b0 S
b100 R
b100 Q
b0 P
b100 O
b0 N
b0 M
b0 L
bx K
b0 J
b0 I
b0 H
b0 G
b100 F
b0 E
b0 D
b100 C
b0 B
b10 A
b0 @
0?
1>
0=
1<
0;
0:
09
b10 8
07
b0 6
b0 5
b0 4
b0 3
b0 2
b0 1
b0 0
b0 /
b0 .
b0 -
b0 ,
b0 +
b0 *
b101001011000010100010011 )
b0 (
b0 '
1&
b101001011000010100010011 %
0$
b0 #
0"
b0 !
$end
#5
1$
#10
0$
#15
b1010 R
b1011000000000001010 F
b1011000000000001010 Q
b1011000000000001010 H
b1011000000000001010 C
b1011000000000001010 T
b101001011000010110010011 %
b101001011000010110010011 )
b100 @
b100 \
b1 B
b1 Z
b0 8
b0 ]
b1 A
b1 [
0>
0<
b1010 _
b10011 .
b10011 W
b1011 ,
b1010 +
b1010 -
b1010 3
b1010 1
b1010 4
b101001011000000000000000 0
b1011000000000001010 2
b0 E
b0 P
b100 #
b100 /
b1 ^
b0 K
b101001011000010100010011 I
b100 L
b100 G
b101001011000010100010011 J
1$
0&
#20
0$
#25
b1010 C
b1010 T
b1010 F
b1010 Q
b1010 H
b1011000000000001010 O
b11 Y
b11 `
b1 A
b1 [
b10 B
b10 Z
b0 @
b0 \
b11 _
b101001011000010110010011 J
b1011000000000001010 G
b1010 ^
1$
#30
0$
#35
b0 R
b100 C
b100 T
b0 F
b0 Q
b100 E
b100 P
19
b0 Y
b0 `
b0 A
b0 [
b0 B
b0 Z
b0 _
b1010 O
b11 ^
b1010 G
1$
#40
0$
#45
b1000 C
b1000 T
b100 R
b100 F
b100 Q
b1000 O
b10 A
b10 [
1>
b10 8
b10 ]
1<
09
b1 _
b1010 p
b1010 (
b100 G
b0 ^
1$
#50
0$
#55
b1010 R
b1011000000000001010 F
b1011000000000001010 Q
b1011000000000001010 H
b101001011000011000110011 %
b101001011000011000110011 )
b1011000000000001110 C
b1011000000000001110 T
b100 @
b100 \
b1 B
b1 Z
b0 8
b0 ]
b1 A
b1 [
0>
0<
b1010 _
b1011 -
b1011 1
b100000001010 4
b1000 #
b1000 /
b100 E
b100 P
b1 ^
b100 K
b101001011000010110010011 I
b1000 L
b1010 !
b1010 *
b1010 N
b1000 G
1$
#60
0$
#65
b1010 C
b1010 T
b1010 F
b1010 Q
b0 E
b0 P
b1010 H
b1011000000000001110 O
b11 Y
b11 `
b1 A
b1 [
b10 B
b10 Z
b0 @
b0 \
b11 _
b101001011000011000110011 J
b1011000000000001110 G
b1010 ^
1$
#70
0$
#75
b10010 C
b10010 T
b1000 E
b1000 P
19
b0 Y
b0 `
b0 A
b0 [
b0 B
b0 Z
b0 _
b1010 O
b11 ^
b1010 G
1$
#80
0$
#85
b1100 C
b1100 T
b100 R
b100 F
b100 Q
b1100 O
b10 A
b10 [
1>
b10 8
b10 ]
1<
09
b1 _
b1010 q
b1010 '
b10010 G
b0 ^
1$
#90
0$
#95
b1010 R
b1011000000000001010 F
b1011000000000001010 Q
b1011000000000001010 H
b111100000000010011010000011 %
b111100000000010011010000011 )
b1011000000000010010 C
b1011000000000010010 T
b100 @
b100 \
b1 B
b1 Z
b0 8
b0 ]
b1 A
b1 [
0>
0<
b10 _
b110011 .
b110011 W
b1100 -
b1100 1
b1100 4
b1100 #
b1100 /
b1000 E
b1000 P
b1 ^
b1000 K
b101001011000011000110011 I
b1100 L
b1010 M
b1100 G
1$
#100
0$
#105
b10100 C
b10100 T
b1010 F
b1010 Q
b1010 E
b1010 P
b1010 H
b1011000000000010010 O
b10 Y
b10 `
b0 A
b0 [
b10 B
b10 Z
b0 @
b0 \
b11 _
b111100000000010011010000011 J
b1011000000000010010 G
b10 ^
1$
#110
0$
#115
b10110 C
b10110 T
b1100 E
b1100 P
19
b0 Y
b0 `
b0 B
b0 Z
b0 _
b10100 O
b11 ^
b10100 G
1$
#120
0$
#125
b10000 C
b10000 T
b100 R
b100 F
b100 Q
b10000 O
b10 A
b10 [
1>
b10 8
b10 ]
1<
09
b1 _
b10100 r
b10110 G
b0 ^
1$
#130
0$
#135
b11000 R
b10000001111000 F
b10000001111000 Q
b10000001111000 H
b10000010000100 C
b10000010000100 T
b110110100000010110000100011 %
b110110100000010110000100011 )
b100 @
b100 \
b1 B
b1 Z
b0 8
b0 ]
b1 A
b1 [
0>
0<
b110 _
b11 .
b11 W
b0 '
b0 ,
b0 (
b11000 +
b1101 -
b10 6
b10 U
b10 a
b11 5
b11 V
b11 b
b1111000 3
b1101101 1
b100001101100 4
b111100000000010000000000000 0
b10000001111000 2
b1100 E
b1100 P
b10000 #
b10000 /
b1 ^
b1100 K
b111100000000010011010000011 I
b10000 L
b10000 G
1$
#140
0$
#145
b1111000 F
b1111000 Q
b1111000 C
b1111000 T
b1111000 H
b10000010000100 O
b0 E
b0 P
b1 A
b1 [
b10 B
b10 Z
b0 @
b0 \
b111 _
b110110100000010110000100011 J
b10000010000100 G
b0 !
b0 *
b0 N
b0 M
b110 ^
1$
#150
0$
#155
b11111111111111111111111111111111 %
b11111111111111111111111111111111 )
b0 R
b10000 C
b10000 T
b1111000 #
b1111000 /
b0 F
b0 Q
b10000 E
b10000 P
1?
b0 A
b0 [
b0 B
b0 Z
b1000 _
b1111000 O
b111 ^
b1111000 G
1$
#160
0$
#165
b110110100000010110000100011 %
b110110100000010110000100011 )
b10000 #
b10000 /
b11111111111111111111111111111111 O
19
b1 8
b1 ]
0?
b0 _
b11111111111111111111111111111111 J
b10000 G
b1000 ^
1$
#170
0$
#175
b10100 C
b10100 T
b100 R
b100 F
b100 Q
b10 A
b10 [
1>
1<
09
b10 8
b10 ]
b1 _
b10100 O
b0 ^
b110110100000010110000100011 J
b11111111111111111111111111111111 s
1$
#180
0$
#185
b10100001111100 C
b10100001111100 T
b1100 R
b1100100010100110111 %
b1100100010100110111 )
b10100001101100 H
b100011 .
b100011 W
b11111111111111111111111111111111 (
b1101 +
b11000 -
b1101101 3
b1111000 1
b1111000 4
b110110100000010000000000000 0
b10100001101100 2
b10100001101100 F
b10100001101100 Q
b10100 #
b10100 /
b100 @
b100 \
b1 B
b1 Z
b0 8
b0 ]
b1 A
b1 [
0>
0<
b110 _
b10100 G
b10000 K
b110110100000010110000100011 I
b10100 L
b1 ^
1$
#190
0$
#195
b11000 R
b1111000 C
b1111000 T
b1111000 F
b1111000 Q
b0 E
b0 P
b1111000 H
b1 A
b1 [
b10 B
b10 Z
b1 @
b1 \
b1001 _
b10100001111100 O
b110 ^
b11111111111111111111111111111111 !
b11111111111111111111111111111111 *
b11111111111111111111111111111111 N
b10100001111100 G
b1100100010100110111 J
1$
#200
0$
#205
b11111111111111111111111111111111 %
b11111111111111111111111111111111 )
b11111 R
b10011 C
b10011 T
b1111000 #
b1111000 /
b11111111111111111111111111111111 F
b11111111111111111111111111111111 Q
b10100 E
b10100 P
b1101101 H
b1111000 O
1"
1=
1?
b0 A
b0 [
b0 B
b0 Z
b0 @
b0 \
b0 _
b1111000 G
b1001 ^
1$
#210
0$
#215
b11000 C
b11000 T
b100 R
b1100100010100110111 %
b1100100010100110111 )
b100 F
b100 Q
b10100 #
b10100 /
b10 A
b10 [
1>
b10 8
b10 ]
1<
0"
0=
0?
b1 _
b11000 O
b0 ^
b10011 G
b11111111111111111111111111111111 J
1$
#220
0$
#225
b1100100000000010100 C
b1100100000000010100 T
b0 R
b11111110110001011100100011100011 %
b11111110110001011100100011100011 )
b1100100000000000000 H
b110111 .
b110111 W
b10100 '
b1100 ,
b0 (
b0 +
b1010 -
b100 6
b100 U
b100 a
b0 5
b0 V
b0 b
b0 3
b1010 1
b1010 4
b1100100000000000000 0
b1100100000000000000 2
b1100100000000000000 F
b1100100000000000000 Q
b11000 #
b11000 /
b100 @
b100 \
b1 B
b1 Z
b0 8
b0 ]
b1 A
b1 [
0>
0<
b1101 _
b1100100010100110111 J
b11000 G
b10100 K
b1100100010100110111 I
b11000 L
b1 ^
1$
#230
0$
#235
b11000 C
b11000 T
b0 F
b0 Q
b11000 E
b11000 P
b11 8
b11 ]
19
b0 A
b0 [
b0 B
b0 Z
b11 @
b11 \
b0 _
b1100100000000000000 O
b1101 ^
b0 !
b0 *
b0 N
b10100 M
b1100100000000010100 G
b11111110110001011100100011100011 J
1$
#240
0$
#245
b11100 C
b11100 T
b100 R
b100 F
b100 Q
b0 H
b11100 O
b10 A
b10 [
1>
1<
09
b10 8
b10 ]
b0 @
b0 \
b1 _
b1100100000000000000 p
b11000 G
b0 ^
1$
#250
0$
#255
b10000 R
b11111111111111111111111111110000 F
b11111111111111111111111111110000 Q
1c
b11111111111111111111111111110000 H
b1000 C
b1000 T
bx %
bx )
b10 @
b10 \
b1 B
b1 Z
b0 8
b0 ]
b1 A
b1 [
0>
0<
b101 _
b1100011 .
b1100011 W
b1010 '
b1011 ,
b10100 (
b1100 +
b10001 -
b1111111 5
b1111111 V
b1111111 b
b11111111111111111111111111101100 3
b11111111111111111111111111110001 1
b11111111111111111111111111110000 4
b11111110110001011100000000000000 0
b11111111111101011100011111101100 2
b11000 E
b11000 P
b11100 #
b11100 /
b1 ^
b11000 K
b11111110110001011100100011100011 I
b11100 L
b11100 G
1$
#260
0$
#265
b10100 R
b1 C
b1 T
b1101 D
b1101 S
b1101 X
b1101 d
b11111111111111111111111111101100 H
b1000 O
b10100 F
b10100 Q
b1010 E
b1010 P
1<
b1 Y
b1 `
b0 A
b0 [
b10 B
b10 Z
b0 @
b0 \
b0 _
bx J
b1000 G
b10100 !
b10100 *
b10100 N
b1010 M
b101 ^
1$
#270
0$
#275
b100 R
b1100 C
b1100 T
b0 D
b0 S
b0 X
b0 d
b100 F
b100 Q
b1000 E
b1000 P
b101001011000011000110011 %
b101001011000011000110011 )
b10 A
b10 [
1>
b10 8
b10 ]
b0 Y
b0 `
b0 B
b0 Z
1<
b1 _
b1000 #
b1000 /
b1100 O
b0 ^
b1000 L
b1 G
1$
#280
0$
#285
0c
b1011000000000010010 C
b1011000000000010010 T
b1010 R
b111100000000010011010000011 %
b111100000000010011010000011 )
b1011000000000001010 H
b110011 .
b110011 W
b1100100000000000000 (
b1010 +
b1100 -
b0 6
b0 U
b0 a
b0 5
b0 V
b0 b
b1010 3
b1100 1
b1100 4
b101001011000000000000000 0
b1011000000000001010 2
b1011000000000001010 F
b1011000000000001010 Q
b1100 #
b1100 /
b100 @
b100 \
b1 B
b1 Z
b0 8
b0 ]
b1 A
b1 [
0>
0<
b10 _
b101001011000011000110011 J
b1100 G
b1000 K
b101001011000011000110011 I
b1100 L
b1 ^
1$
#290
0$
#295
b0 R
b1100100000000001010 C
b1100100000000001010 T
b1100100000000000000 F
b1100100000000000000 Q
b1010 E
b1010 P
b1010 H
b10 Y
b10 `
b0 A
b0 [
b10 B
b10 Z
b0 @
b0 \
b11 _
b1011000000000010010 O
b10 ^
b1100100000000000000 !
b1100100000000000000 *
b1100100000000000000 N
b1011000000000010010 G
b111100000000010011010000011 J
1$
#300
0$
#305
b1100100000000001100 C
b1100100000000001100 T
b1100 E
b1100 P
b1100100000000001010 O
19
b0 Y
b0 `
b0 B
b0 Z
b0 _
b1100100000000001010 G
b11 ^
1$
#310
0$
#315
b10000 C
b10000 T
b100 R
b100 F
b100 Q
b10 A
b10 [
1>
b10 8
b10 ]
1<
09
b1 _
b10000 O
b0 ^
b1100100000000001100 G
b1100100000000001010 r
1$
#320
0$
#325
b10000010000100 C
b10000010000100 T
b11000 R
b110110100000010110000100011 %
b110110100000010110000100011 )
b10000001111000 H
b11 .
b11 W
b0 '
b0 ,
b0 (
b11000 +
b1101 -
b10 6
b10 U
b10 a
b11 5
b11 V
b11 b
b1111000 3
b1101101 1
b100001101100 4
b111100000000010000000000000 0
b10000001111000 2
b10000001111000 F
b10000001111000 Q
b10000 #
b10000 /
b100 @
b100 \
b1 B
b1 Z
b0 8
b0 ]
b1 A
b1 [
0>
0<
b110 _
b10000 G
b1100 K
b111100000000010011010000011 I
b10000 L
b1 ^
1$
#330
0$
#335
b1111000 C
b1111000 T
b1111000 F
b1111000 Q
b0 E
b0 P
b1111000 H
b1 A
b1 [
b10 B
b10 Z
b0 @
b0 \
b111 _
b10000010000100 O
b110 ^
b0 !
b0 *
b0 N
b0 M
b10000010000100 G
b110110100000010110000100011 J
1$
#340
0$
#345
b11111111111111111111111111111111 %
b11111111111111111111111111111111 )
b0 R
b10000 C
b10000 T
b1111000 #
b1111000 /
b0 F
b0 Q
b10000 E
b10000 P
b1111000 O
1?
b0 A
b0 [
b0 B
b0 Z
b1000 _
b1111000 G
b111 ^
1$
#350
0$
#355
b110110100000010110000100011 %
b110110100000010110000100011 )
b10000 #
b10000 /
19
b1 8
b1 ]
0?
b0 _
b11111111111111111111111111111111 O
b1000 ^
b10000 G
b11111111111111111111111111111111 J
1$
#360
0$
#365
b10100 C
b10100 T
b100 R
b100 F
b100 Q
b10100 O
b10 A
b10 [
1>
1<
09
b10 8
b10 ]
b1 _
b11111111111111111111111111111111 s
b110110100000010110000100011 J
b0 ^
1$
#370
0$
#375
b1100 R
b10100001101100 F
b10100001101100 Q
b10100001101100 H
b10100001111100 C
b10100001111100 T
b1100100010100110111 %
b1100100010100110111 )
b100 @
b100 \
b1 B
b1 Z
b0 8
b0 ]
b1 A
b1 [
0>
0<
b110 _
b100011 .
b100011 W
b11111111111111111111111111111111 (
b1101 +
b11000 -
b1101101 3
b1111000 1
b1111000 4
b110110100000010000000000000 0
b10100001101100 2
b10000 E
b10000 P
b10100 #
b10100 /
b1 ^
b10000 K
b110110100000010110000100011 I
b10100 L
b10100 G
1$
#380
0$
#385
b11000 R
b1111000 F
b1111000 Q
b1111000 C
b1111000 T
b1111000 H
b10100001111100 O
b0 E
b0 P
b1 A
b1 [
b10 B
b10 Z
b1 @
b1 \
b1001 _
b1100100010100110111 J
b10100001111100 G
b11111111111111111111111111111111 !
b11111111111111111111111111111111 *
b11111111111111111111111111111111 N
b110 ^
1$
#390
0$
#395
b11111111111111111111111111111111 %
b11111111111111111111111111111111 )
b11111 R
b10011 C
b10011 T
b1111000 #
b1111000 /
b11111111111111111111111111111111 F
b11111111111111111111111111111111 Q
b10100 E
b10100 P
b1101101 H
1"
1=
1?
b0 A
b0 [
b0 B
b0 Z
b0 @
b0 \
b0 _
b1111000 O
b1001 ^
b1111000 G
1$
#400
0$
#405
b11000 C
b11000 T
b100 R
b1100100010100110111 %
b1100100010100110111 )
b100 F
b100 Q
b10100 #
b10100 /
b11000 O
b10 A
b10 [
1>
b10 8
b10 ]
1<
0"
0=
0?
b1 _
b11111111111111111111111111111111 J
b10011 G
b0 ^
1$
#410
0$
#415
b0 R
b1100100000000000000 F
b1100100000000000000 Q
b1100100000000000000 H
b1100100000000010100 C
b1100100000000010100 T
b11111110110001011100100011100011 %
b11111110110001011100100011100011 )
b100 @
b100 \
b1 B
b1 Z
b0 8
b0 ]
b1 A
b1 [
0>
0<
b1101 _
b110111 .
b110111 W
b1100100000000001010 '
b1100 ,
b0 (
b0 +
b1010 -
b100 6
b100 U
b100 a
b0 5
b0 V
b0 b
b0 3
b1010 1
b1010 4
b1100100000000000000 0
b1100100000000000000 2
b10100 E
b10100 P
b11000 #
b11000 /
b1 ^
b10100 K
b1100100010100110111 I
b11000 L
b11000 G
b1100100010100110111 J
1$
#420
0$
#425
b11000 C
b11000 T
b1100100000000000000 O
b0 F
b0 Q
b11000 E
b11000 P
b11 8
b11 ]
19
b0 A
b0 [
b0 B
b0 Z
b11 @
b11 \
b0 _
b11111110110001011100100011100011 J
b1100100000000010100 G
b0 !
b0 *
b0 N
b1100100000000001010 M
b1101 ^
1$
#430
0$
#435
b11100 C
b11100 T
b100 R
b100 F
b100 Q
b11100 O
b0 H
b10 A
b10 [
1>
1<
09
b10 8
b10 ]
b0 @
b0 \
b1 _
b0 ^
b11000 G
b1100100000000000000 p
1$
#440
0$
#445
1c
b1000 C
b1000 T
b10000 R
bx %
bx )
b11111111111111111111111111110000 H
b1100011 .
b1100011 W
b1010 '
b1011 ,
b1100100000000001010 (
b1100 +
b10001 -
b1111111 5
b1111111 V
b1111111 b
b11111111111111111111111111101100 3
b11111111111111111111111111110001 1
b11111111111111111111111111110000 4
b11111110110001011100000000000000 0
b11111111111101011100011111101100 2
b11111111111111111111111111110000 F
b11111111111111111111111111110000 Q
b11100 #
b11100 /
b10 @
b10 \
b1 B
b1 Z
b0 8
b0 ]
b1 A
b1 [
0>
0<
b101 _
b11100 G
b11000 K
b11111110110001011100100011100011 I
b11100 L
b1 ^
1$
#450
0$
#455
b1010 R
b1 C
b1 T
b1101 D
b1101 S
b1101 X
b1101 d
b1100100000000001010 F
b1100100000000001010 Q
b1010 E
b1010 P
b11111111111111111111111111101100 H
1<
b1 Y
b1 `
b0 A
b0 [
b10 B
b10 Z
b0 @
b0 \
b0 _
b1000 O
b101 ^
b1100100000000001010 !
b1100100000000001010 *
b1100100000000001010 N
b1010 M
b1000 G
bx J
1$
#460
0$
#465
b100 R
b1100 C
b1100 T
b101001011000011000110011 %
b101001011000011000110011 )
b0 D
b0 S
b0 X
b0 d
b1100 O
b100 F
b100 Q
b1000 E
b1000 P
b1000 #
b1000 /
b10 A
b10 [
1>
b10 8
b10 ]
b0 Y
b0 `
b0 B
b0 Z
1<
b1 _
b1 G
b1000 L
b0 ^
1$
#470
0$
#475
b1010 R
b1011000000000001010 F
b1011000000000001010 Q
0c
b1011000000000001010 H
b1011000000000010010 C
b1011000000000010010 T
b111100000000010011010000011 %
b111100000000010011010000011 )
b100 @
b100 \
b1 B
b1 Z
b0 8
b0 ]
b1 A
b1 [
0>
0<
b10 _
b110011 .
b110011 W
b1100100000000000000 (
b1010 +
b1100 -
b0 6
b0 U
b0 a
b0 5
b0 V
b0 b
b1010 3
b1100 1
b1100 4
b101001011000000000000000 0
b1011000000000001010 2
b1000 E
b1000 P
b1100 #
b1100 /
b1 ^
b1000 K
b101001011000011000110011 I
b1100 L
b1100 G
b101001011000011000110011 J
1$
#480
0$
#485
b0 R
b1100100000000001010 C
b1100100000000001010 T
b1010 H
b1011000000000010010 O
b1100100000000000000 F
b1100100000000000000 Q
b1010 E
b1010 P
b10 Y
b10 `
b0 A
b0 [
b10 B
b10 Z
b0 @
b0 \
b11 _
b111100000000010011010000011 J
b1011000000000010010 G
b1100100000000000000 !
b1100100000000000000 *
b1100100000000000000 N
b10 ^
1$
#490
0$
#495
b1100100000000001100 C
b1100100000000001100 T
b1100 E
b1100 P
19
b0 Y
b0 `
b0 B
b0 Z
b0 _
b1100100000000001010 O
b11 ^
b1100100000000001010 G
1$
#500
0$
#505
b10000 C
b10000 T
b100 R
b100 F
b100 Q
b10000 O
b10 A
b10 [
1>
b10 8
b10 ]
1<
09
b1 _
b1100100000000001010 r
b1100100000000001100 G
b0 ^
1$
#510
0$
#515
b11000 R
b10000001111000 F
b10000001111000 Q
b10000001111000 H
b10000010000100 C
b10000010000100 T
b110110100000010110000100011 %
b110110100000010110000100011 )
b100 @
b100 \
b1 B
b1 Z
b0 8
b0 ]
b1 A
b1 [
0>
0<
b110 _
b11 .
b11 W
b0 '
b0 ,
b0 (
b11000 +
b1101 -
b10 6
b10 U
b10 a
b11 5
b11 V
b11 b
b1111000 3
b1101101 1
b100001101100 4
b111100000000010000000000000 0
b10000001111000 2
b1100 E
b1100 P
b10000 #
b10000 /
b1 ^
b1100 K
b111100000000010011010000011 I
b10000 L
b10000 G
1$
#520
0$
#525
b1111000 F
b1111000 Q
b1111000 C
b1111000 T
b1111000 H
b10000010000100 O
b0 E
b0 P
b1 A
b1 [
b10 B
b10 Z
b0 @
b0 \
b111 _
b110110100000010110000100011 J
b10000010000100 G
b0 !
b0 *
b0 N
b0 M
b110 ^
1$
#530
0$
#535
b11111111111111111111111111111111 %
b11111111111111111111111111111111 )
b0 R
b10000 C
b10000 T
b1111000 #
b1111000 /
b0 F
b0 Q
b10000 E
b10000 P
1?
b0 A
b0 [
b0 B
b0 Z
b1000 _
b1111000 O
b111 ^
b1111000 G
1$
#540
0$
#545
b110110100000010110000100011 %
b110110100000010110000100011 )
b10000 #
b10000 /
b11111111111111111111111111111111 O
19
b1 8
b1 ]
0?
b0 _
b11111111111111111111111111111111 J
b10000 G
b1000 ^
1$
#550
0$
#555
b10100 C
b10100 T
b100 R
b100 F
b100 Q
b10 A
b10 [
1>
1<
09
b10 8
b10 ]
b1 _
b10100 O
b0 ^
b110110100000010110000100011 J
b11111111111111111111111111111111 s
1$
#560
0$
#565
b10100001111100 C
b10100001111100 T
b1100 R
b1100100010100110111 %
b1100100010100110111 )
b10100001101100 H
b100011 .
b100011 W
b11111111111111111111111111111111 (
b1101 +
b11000 -
b1101101 3
b1111000 1
b1111000 4
b110110100000010000000000000 0
b10100001101100 2
b10100001101100 F
b10100001101100 Q
b10100 #
b10100 /
b100 @
b100 \
b1 B
b1 Z
b0 8
b0 ]
b1 A
b1 [
0>
0<
b110 _
b10100 G
b10000 K
b110110100000010110000100011 I
b10100 L
b1 ^
1$
#570
0$
#575
b11000 R
b1111000 C
b1111000 T
b1111000 F
b1111000 Q
b0 E
b0 P
b1111000 H
b1 A
b1 [
b10 B
b10 Z
b1 @
b1 \
b1001 _
b10100001111100 O
b110 ^
b11111111111111111111111111111111 !
b11111111111111111111111111111111 *
b11111111111111111111111111111111 N
b10100001111100 G
b1100100010100110111 J
1$
#580
0$
#585
b11111111111111111111111111111111 %
b11111111111111111111111111111111 )
b11111 R
b10011 C
b10011 T
b1111000 #
b1111000 /
b11111111111111111111111111111111 F
b11111111111111111111111111111111 Q
b10100 E
b10100 P
b1101101 H
b1111000 O
1"
1=
1?
b0 A
b0 [
b0 B
b0 Z
b0 @
b0 \
b0 _
b1111000 G
b1001 ^
1$
